{
    "RUNTIME_ENV": "prod",
    "BASE_USERS": {
        "adminUser": {
            "username": "admin",
            "password": "psh.heart",
            "email": "foo@bar.com"
        }
    },
    "MEM_DB": {
        "name": "sdf-ds",
        "localStorage": "",
        "file": "sdf-db.json",
        "connector": "memory"
    },
    "INITIAL_SETTINGS": [
        {
            "name": "nginxConfigPath",
            "value": "__PSH_HOME_DIR__/.nginx/conf.d/default.conf"
        },
        {
            "name": "nginxHtpasswdDir",
            "value": "__PSH_HOME_DIR__/.nginx/auth/"
        },
        {
            "name": "composeConfigPath",
            "value": "__PSH_HOME_DIR__/docker-compose/mdundek-network/docker-compose.yml"
        },
        {
            "name": "defaultNginxDomain",
            "value": ""
        }
    ]
}